{
	"_id": "anmklpoiu",
	"name": "CSS",
	"description":"Learn the basics of styling the webpage",
	"price": 2000,
	"isActive":true,
	"slots": 30,
	"enrollees": /*Array of Obj*/[
	{
	"userId": "",
	"enrolledOn": ""
	}
	],
	"createdOn": "2010-05-10T15:00:00Z"
},
{
	"_id": "000001asdfqwe",
	"name": "HTML",
	"description":"Learn the basics of how to code",
	"price": 1000,
	"isActive":true,
	"slots": 30,
	"enrollees": /*Array of Obj*/[
	  {
		//should be existing user model; this course should be included in enrollments array of that user
		"userId": "qwerty987",
		"enrolledOn": "2020-06-12T15:00:00Z"
	  }
	],
	"createdOn": "2010-05-10T15:00:00Z"
}

//MiniActivity
{
	"_id": "000002asdfqwe",
	"name": "JavaScript",
	"description":"Make websites fun and interactive.",
	"price": 4000,
	"isActive":false,
	"slots": 0,
	"enrollees": /*Array of Obj*/[
	{
	"userId": "123kuhk56",
	"enrolledOn": "2020-06-12T15:00:00Z"
	},
	{
	"userId": "nmliseofrypo",
	"enrolledOn": "2020-06-13T15:00:00Z"
	},
	{
	"userId": "29871hduwka",
	"enrolledOn": "2020-06-14T15:00:00Z"
	}
	],
	"createdOn": "2010-05-10T15:00:00Z"
}

